Vanilla: 0.5_threads:1
Vanilla: 0.5_threads:1
Vanilla: 0.5_threads:1
Rave: 0.5_threads:1
Vanilla: 0.5_threads:1
Rave: 0.5_threads:1
Rave: 1.0_threads:1
Vanilla: 0.0_threads:1
Vanilla: 0.0_threads:1
Rave: 1.0_threads:1
Rave: 0.5_threads:1
Vanilla: 0.5_threads:1
Rave: 1.0_threads:1
Vanilla: 0.0_threads:1
Rave: 1.0_threads:1
Vanilla: 0.0_threads:1
Rave: 1.0_threads:1
Vanilla: 0.0_threads:1
Vanilla: 1.0_threads:1
Vanilla: 0.0_threads:1
Vanilla: 1.0_threads:1
Vanilla: 0.0_threads:1
Vanilla: 1.0_threads:1
Vanilla: 0.0_threads:1
Vanilla: 1.0_threads:1
Vanilla: 0.0_threads:1
Vanilla: 0.5_threads:1
Vanilla: 0.5_threads:1
Vanilla: 0.5_threads:1
Vanilla: 0.5_threads:1
Vanilla: 0.5_threads:1
Vanilla: 0.5_threads:1
Vanilla: 0.5_threads:1
Vanilla: 0.5_threads:1
Rave: 0.5_threads:1
Vanilla: 0.5_threads:1
Rave: 0.5_threads:1
Vanilla: 0.5_threads:1
Vanilla: 0.5_threads:1
Vanilla: 0.5_threads:1
Vanilla: 0.5_threads:1
Vanilla: 0.5_threads:1
Vanilla: 0.5_threads:1
Vanilla: 0.5_threads:1
Vanilla: 0.5_threads:1
Rave: 0.5_threads:1
Rave: 0.5_threads:1
Vanilla: 0.5_threads:1
Vanilla: 0.5_threads:1
Vanilla: 0.5_threads:1
Vanilla: 0.5_threads:1
Vanilla: 0.5_threads:1
Vanilla: 0.5_threads:1
Rave: 0.0_threads:1
Vanilla: 1.0_threads:1
Rave: 0.5_threads:1
Vanilla: 0.5_threads:1
Vanilla: 1.0_threads:1
Rave: 0.0_threads:1
Rave: 0.0_threads:1
Vanilla: 1.0_threads:1
Vanilla: 1.0_threads:1
Rave: 0.0_threads:1
